! file: ferriheme.inp
! date: 03/10/2014
! D. Kuter
! 
* Example input for building Fe(III)PPIX  
*
!------------------------------SCRIPT STARTS HERE ---------------------------

!--------- Set Bomb and Warning Levels ----------
BOMLEV -2
WRNLEV 5

!---------------- Topology and Paramter Files ------------

open unit 1 read form name top_all36_prot.rtf
read rtf card unit 1

open unit 2 read form name par_all36_prot.prm
read param card unit 2 flex

open unit 11 read form name top_ferriheme_v2.rtf
read rtf card unit 11 append

open unit 12 read form name par_ferriheme_v2.prm
read param card unit 12 append flex  

!-------------- H2O-FePPIX (3 species) ---------------
READ SEQUENCE CARD
*
1
WHEM

generate WHEM SETUP angl dihe ! Deprotonated propionates

open unit 24 read card name whem.cor
read coor card unit 24

patch FHEM WHEM 1 noangle nodihedral ! Remove diagonal N-Fe-N angles

READ SEQUENCE CARD
*
1
WHMA

generate WHMA SETUP angl dihe ! Protonated propionate chain A

open unit 24 read card name whma.cor
read coor card unit 24

patch FHEM WHMA 1 noangle nodihedral ! Remove diagonal N-Fe-N angles

READ SEQUENCE CARD
*
1
WHMD

generate WHMD SETUP angl dihe ! Protonated propionate chain D

open unit 24 read card name whma.cor
read coor card unit 24

patch FHEM WHMD 1 noangle nodihedral ! Remove diagonal N-Fe-N angles

!-------------- HO-FePPIX ---------------

READ SEQUENCE CARD
*
1
HHEM

generate WHEM SETUP angl dihe

open unit 24 read card name hhem.cor
read coor card unit 24

patch FHEM HHEM 1 noangle nodihedral ! Remove diagonal N-Fe-N angles

!-------------- mu-oxo FePPIX ---------------

READ SEQUENCE CARD
*
1
MHEM

generate MHEM SETUP angl dihe

open unit 24 read card name mhem.cor
read coor card unit 24

patch FXHM MHEM 1 noangle nodihedral ! Remove diagonal N-Fe-N angles


stop

